{
  "count": 1126,
  "next": "https://pokeapi.co/api/v2/pokemon?offset=10&limit=10",
  "previous": null,
  "results": [
    {
      "name": "Cafe Lilo",
      "url": "https://raw.githubusercontent.com/wesare/detailsMenu/main/img/cafelil.png"
    },
    {
      "name": "Menu 2",
      "url": "https://pokeapi.co/api/v2/pokemon/2/"
    },
    {
      "name": "Menu 3",
      "url": "https://pokeapi.co/api/v2/pokemon/3/"
    },
    {
      "name": "Menu 4",
      "url": "https://pokeapi.co/api/v2/pokemon/4/"
    },
    {
      "name": "test working",
      "url": "https://pokeapi.co/api/v2/pokemon/5/"
    },
    {
      "name": "c",
      "url": "https://pokeapi.co/api/v2/pokemon/6/"
    },
    {
      "name": "s",
      "url": "https://pokeapi.co/api/v2/pokemon/7/"
    },
    {
      "name": "w",
      "url": "https://pokeapi.co/api/v2/pokemon/8/"
    },
    {
      "name": "b",
      "url": "https://pokeapi.co/api/v2/pokemon/9/"
    },
    {
      "name": "c",
      "url": "https://pokeapi.co/api/v2/pokemon/10/"
    }
  ]
}
